[{"iban":"CY16 4445 5304 W48P PWDG CL6I SIJL","userid":1,"balance":671},
{"iban":"FR29 4919 4895 91YT I6JJ X5Y8 153","userid":2,"balance":340},
{"iban":"MC07 5681 2450 23EI KKS2 DFGL S21","userid":2,"balance":201},
{"iban":"CH96 8907 7GJV WJMF AGAU 4","userid":4,"balance":663},
{"iban":"PT16 5564 2586 3368 6020 8124 8","userid":5,"balance":545},
{"iban":"FI05 1555 2496 7129 41","userid":6,"balance":717},
{"iban":"GE28 FI62 8217 4792 6939 98","userid":7,"balance":0},
{"iban":"FO22 5795 2161 3565 53","userid":8,"balance":258},
{"iban":"LB22 1701 WCF1 NSCD SNIF UEBU AJLL","userid":2,"balance":526},
{"iban":"GI95 XUOD V3US FIZC WYX0 TWH","userid":10,"balance":443}]
